{
    "key": "group_612da06c506a8",
    "title": "Block - Video Stories",
    "fields": [
        {
            "key": "field_612da09d17a46",
            "label": "Videos",
            "name": "videos",
            "type": "repeater",
            "instructions": "Videos alternate left and right (even\/odd calculation). Max of 10 videos (for performance).",
            "required": 0,
            "conditional_logic": 0,
            "wrapper": {
                "width": "",
                "class": "",
                "id": ""
            },
            "collapsed": "field_612dbd0da95da",
            "min": 0,
            "max": 10,
            "layout": "block",
            "button_label": "Add Video",
            "sub_fields": [
                {
                    "key": "field_612dbd0da95da",
                    "label": "Header",
                    "name": "header",
                    "type": "text",
                    "instructions": "Optional.",
                    "required": 0,
                    "conditional_logic": 0,
                    "wrapper": {
                        "width": "",
                        "class": "",
                        "id": ""
                    },
                    "default_value": "",
                    "placeholder": "",
                    "prepend": "",
                    "append": "",
                    "maxlength": ""
                },
                {
                    "key": "field_612da38545a75",
                    "label": "Video",
                    "name": "video",
                    "type": "url",
                    "instructions": "The URL for the video from the Media section.",
                    "required": 0,
                    "conditional_logic": 0,
                    "wrapper": {
                        "width": "",
                        "class": "",
                        "id": ""
                    },
                    "default_value": "",
                    "placeholder": ""
                },
                {
                    "key": "field_612dbd32a95db",
                    "label": "Info Text",
                    "name": "info_text",
                    "type": "textarea",
                    "instructions": "Optional.",
                    "required": 0,
                    "conditional_logic": 0,
                    "wrapper": {
                        "width": "",
                        "class": "",
                        "id": ""
                    },
                    "default_value": "",
                    "placeholder": "",
                    "maxlength": "",
                    "rows": 3,
                    "new_lines": ""
                }
            ]
        }
    ],
    "location": [
        [
            {
                "param": "block",
                "operator": "==",
                "value": "acf\/video-stories"
            }
        ]
    ],
    "menu_order": 0,
    "position": "normal",
    "style": "default",
    "label_placement": "top",
    "instruction_placement": "label",
    "hide_on_screen": "",
    "active": true,
    "description": "",
    "modified": 1630390522
}