<?xml version="1.0" encoding="utf-8"?>
<!-- Generator: Adobe Illustrator 25.2.1, SVG Export Plug-In . SVG Version: 6.00 Build 0)  -->
<svg version="1.1" id="Layer_1" xmlns="http://www.w3.org/2000/svg" xmlns:xlink="http://www.w3.org/1999/xlink" x="0px" y="0px"
	 viewBox="0 0 576 242.9" style="enable-background:new 0 0 576 242.9;" xml:space="preserve">
<style type="text/css">
	.st0{clip-path:url(#SVGID_2_);}
	.st1{fill:#FFFFFF;}
	.st2{fill:#FFBC00;}
	.st3{fill:#00C5EC;}
</style>
<g id="b201e78f-62ff-43d8-84cc-5376fdbed5f3">
	<g id="f15b6b29-9a4e-44d3-8fd0-577c789729e2">
		<g>
			<defs>
				<rect id="SVGID_1_" width="576" height="242.9"/>
			</defs>
			<clipPath id="SVGID_2_">
				<use xlink:href="#SVGID_1_"  style="overflow:visible;"/>
			</clipPath>
			<g class="st0">
				<path class="st1" d="M228.4,24.4l42.2-11.5c28.2,103.4,14.5,211.7-38.6,304.8S92.6,477.6-10.9,505.8l-11.5-42.2
					c91.6-24.7,169.6-85.1,216.4-167.7C241.3,213.6,253.7,115.9,228.4,24.4z"/>
				<path class="st1" d="M-375.8-188.1c44.6-37.8,97-65.3,153.4-80.6l11.5,42.2c-50.3,13.6-96.9,38.1-136.7,71.8L-375.8-188.1z"/>
				<path class="st1" d="M-488.4-33l40.5,16.5c-29.9,72.8-34.8,153.4-13.8,229.2l-42.2,11.5C-527.3,138.3-522,49.3-488.4-33z"/>
				<path class="st2" d="M-222.4-268.6c213.5-58.3,434.7,68,493,281.5l-42.2,11.5C203.7-67.3,143.3-145.2,60.7-192
					c-82.3-47.3-180.1-59.7-271.6-34.4L-222.4-268.6z"/>
				<path class="st3" d="M-503.9,224.3l42.2-11.5c24.7,91.6,85.1,169.5,167.7,216.4c82.3,47.3,180.1,59.7,271.6,34.4l11.5,42.2
					C-224.4,564.2-445.5,437.9-503.9,224.3z"/>
				<path class="st3" d="M284.3,266.3l35.2,13c-37.4,101.2-108.7,186.3-201.8,240.7l-18.9-32.4C184.4,437.5,250,359.3,284.3,266.3z"
					/>
				<path class="st3" d="M252.4-96.8l32.4-18.9c35.3,60.1,56.5,127.5,62,197l-37.4,3C304.3,20.4,284.8-41.5,252.4-96.8z"/>
				<path class="st3" d="M-446.8-208.6c28.6-28.8,60.8-53.8,95.9-74.2l18.9,32.4c-98.5,57.5-168.8,150-197.8,260.4
					s-13.3,225.4,44.2,324l-32.4,18.9C-626.2,167.5-591.2-62.8-446.8-208.6z"/>
				<path class="st1" d="M-350.9-282.8c107.2-62.6,232.4-79.7,352.4-48.1s220.6,108,283.2,215.2l-32.4,18.9
					C194.8-195.4,102.4-265.6-8-294.6s-225.4-13.3-324,44.2L-350.9-282.8z"/>
				<path class="st2" d="M-386.1,450.3C-248.8,561.8-54,576.7,98.8,487.6l18.9,32.4c-166.1,97-378.1,80.7-527.4-40.5L-386.1,450.3z"
					/>
				<path class="st2" d="M227.5-228.8l22-22.2C453.3-49.2,454.9,280.9,253,484.7l-22.2-22C420.5,271.1,419-39.1,227.5-228.8z"/>
				<path class="st2" d="M-486.2-247.5l22.2,22C-653.8-34-652.3,276.3-460.7,466l-22,22.2C-686.5,286.3-688.1-43.7-486.2-247.5z"/>
				<path class="st3" d="M-301.7-367.7c142.5-54.4,301.7-43.4,435.4,30.1l-15,27.4c-125.7-69-275.3-79.4-409.3-28.3L-301.7-367.7z"
					/>
				<path class="st1" d="M-482.7,488.2l22-22.2c79.1,78.3,179.1,126.2,289.5,138.5l-3.5,31.1C-292.1,622.5-398.6,571.5-482.7,488.2z
					"/>
				<path class="st1" d="M44.9,580.2c70.2-24.4,133.8-64.6,185.9-117.6l22.2,22C197.5,541,129.8,583.8,55.2,609.8L44.9,580.2z"/>
				<path class="st1" d="M168.4-380.6c103.3,59,184.6,146.9,235,254.1c49.2,104.2,65.9,220.8,47.9,334.6l-24.7-3.9
					C461.9-20,353.2-246.3,156-358.9L168.4-380.6z"/>
				<path class="st1" d="M-615.8-166.4l21.7,12.4c-39.2,68.3-63.2,144.3-70.2,222.7l-24.9-2.2C-681.8-15.6-656.8-95-615.8-166.4z"/>
				<path class="st1" d="M-666.5,285.9l23.9-7.3c40.7,134.4,131.4,248,253.4,317.4l-12.4,21.7C-529.2,545.1-624,426.4-666.5,285.9z"
					/>
				<path class="st2" d="M-524.5-286.7C-454.4-357.5-366.7-409-268-435.9c148.1-40.5,303.1-20.8,436.4,55.3L156-358.9
					c-127.5-72.8-275.8-91.6-417.5-52.9S-521.2-281.5-594.1-154l-21.7-12.4C-590.8-210.3-560.1-250.8-524.5-286.7z"/>
				<path class="st3" d="M-389.2,596c127.5,72.9,275.8,91.7,417.5,53S288,518.7,360.8,391.2l21.7,12.4
					c-76.1,133.3-199.6,229-347.7,269.5s-303.1,20.8-436.4-55.3L-389.2,596z"/>
				<path class="st3" d="M-718-39.5l18,4.7c-84.7,322.2,107.9,652,430.1,736.6l-4.7,18.1C-606.3,632.8-805.2,292.1-718-39.5z"/>
				<path class="st3" d="M41.4-482.8C373.1-395.7,571.9-55,484.8,276.6l-18.1-4.8c84.5-321.6-108.4-652-430-736.6L41.4-482.8z"/>
				<path class="st2" d="M-4.3,711.3C223,668,407.9,495.5,466.7,271.9l18.1,4.8c-60.6,230.6-251.2,408.4-485.6,453L-4.3,711.3z"/>
				<path class="st1" d="M-558.8-319.2c71-71.5,158.3-124.8,254.4-155.1l5.7,17.9c-198.3,63-348.2,220.7-401.1,421.7l-18.1-4.8
					C-690.5-145.1-635.5-241.6-558.8-319.2z"/>
				<path class="st2" d="M-119.8-537.5c361.8-1.7,657.5,291.2,659.2,653l-12.5,0C525.3-239.4,235.2-526.7-119.7-525L-119.8-537.5z"
					/>
				<path class="st2" d="M-772.7,121.7l12.5-0.1c0.8,171.9,68.5,333.2,190.7,454.2s284.1,187.2,456,186.3l0.1,12.5
					c-175.2,0.8-340.3-66.6-464.9-190S-771.9,297-772.7,121.7z"/>
				<path class="st3" d="M-582.8-343.1c40.4-40.8,85.9-76.2,135.5-105.1c99.4-58,212.4-88.8,327.5-89.3l0.1,12.5
					c-228,1.1-433.8,118.9-550.5,315.1l-10.7-6.4C-653.5-262.4-620.5-305-582.8-343.1z"/>
				<path class="st1" d="M527,115.5l12.5-0.1c1.7,361.8-291.2,657.6-653,659.2l-0.1-12.5C241.4,760.5,528.7,470.4,527,115.5z"/>
				<path class="st2" d="M-598.7-360.5C-515-445-410.5-506-295.7-537.2l1.6,6C-652.3-433.3-864.2-62.2-766.3,296l-6,1.6
					C-838.6,55-764.1-193.4-598.7-360.5z"/>
				<path class="st3" d="M533.1-58.8l6-1.6C587,114.7,563.7,298,473.7,455.6S237.6,726.5,62.5,774.3l-1.7-6
					c173.5-47.4,318.2-159.5,407.5-315.8S580.5,114.7,533.1-58.8z"/>
				<path class="st1" d="M-772.4,297.7l6-1.6c36.4,133.3,111.4,250.4,217,338.8c102.5,86,228.3,139.6,361.4,153.7l-0.7,6.2
					c-134.3-14.3-261.3-68.3-364.7-155.1C-659.9,550.4-735.6,432.2-772.4,297.7z"/>
				<path class="st1" d="M-295.7-537.2c175.2-47.8,358.5-24.6,516.1,65.4S491.3-235.6,539.1-60.5l-6,1.6
					c-47.4-173.5-159.6-318.2-315.8-407.4S-120.5-578.5-294-531.1L-295.7-537.2z"/>
				<path class="st2" d="M-115.2,406.4C43.5,405.6,172,275.9,171.2,117.2l50-0.2C222.1,303.2,71.3,455.5-115,456.4L-115.2,406.4z"/>
				<path class="st2" d="M-356.6-119.1c62.9-63.9,148.7-99.9,238.4-100.1l0.2,50c-76.4,0.1-149.5,30.8-203.1,85.2
					C-375-29.9-405,43.6-404.4,120l-50,0.2C-455.1,30.6-419.9-55.6-356.6-119.1z"/>
				<path class="st3" d="M-118.2-219.2C68-220.1,220.3-69.3,221.2,117l-50,0.2C170.4-41.5,40.7-170-118-169.2L-118.2-219.2z"/>
				<path class="st1" d="M-454.4,120.2l50-0.2c0.5,102.1,55.8,197.2,144.4,248.2l-25,43.3C-389,351.6-453.9,240-454.4,120.2z"/>
			</g>
		</g>
	</g>
</g>
</svg>
