<?xml version="1.0" encoding="utf-8"?>
<!-- Generator: Adobe Illustrator 25.2.1, SVG Export Plug-In . SVG Version: 6.00 Build 0)  -->
<svg version="1.1" id="Layer_1" xmlns="http://www.w3.org/2000/svg" xmlns:xlink="http://www.w3.org/1999/xlink" x="0px" y="0px"
	 viewBox="0 0 306.8 674.4" style="enable-background:new 0 0 306.8 674.4;" xml:space="preserve">
<style type="text/css">
	.st0{clip-path:url(#SVGID_2_);}
	.st1{fill:#FFFFFF;}
	.st2{fill:#FFBC00;}
	.st3{fill:#00C5EC;}
	.st4{fill:#004CDA;}
</style>
<g>
	<defs>
		<rect id="SVGID_1_" x="-1123.9" width="1430.7" height="674.4"/>
	</defs>
	<clipPath id="SVGID_2_">
		<use xlink:href="#SVGID_1_"  style="overflow:visible;"/>
	</clipPath>
	<g class="st0">
		<path class="st1" d="M862.2,654.8l21.9,38c93-53.7,159.6-140.4,187.4-244.2c27.8-103.7,13.5-212.1-40.2-305.2l-38,21.9
			c47.9,82.9,60.6,179.5,35.8,271.9C1004.4,529.7,945.1,607,862.2,654.8z"/>
		<path class="st1" d="M282.3,380.1c5.2,58.5,22.8,114.2,52.4,165.5l38-21.9c-26.4-45.7-42.1-95.3-46.7-147.4L282.3,380.1z"/>
		<path class="st1" d="M311.6,190.3l40.5,16.8C382.4,133.8,434.9,74,503.8,34.2l-21.9-38C404.6,40.9,345.7,108,311.6,190.3z"/>
		<path class="st2" d="M334.7,545.6c110.9,192,357.3,258.1,549.4,147.2l-21.9-38c-82.9,47.9-179.5,60.6-271.9,35.8
			c-92.5-24.8-169.7-84.1-217.6-167L334.7,545.6z"/>
		<path class="st3" d="M481.9-3.8l21.9,38c82.9-47.9,179.5-60.6,271.9-35.8c92.5,24.8,169.7,84.1,217.6,167l38-21.9
			C920.4-48.6,674-114.7,481.9-3.8z"/>
		<path class="st3" d="M1072.5,522l34.2,15.6c44.7-98,54-209.4,26-313.6l-36.3,9.7C1122.1,329.5,1113.6,431.9,1072.5,522z"/>
		<path class="st3" d="M793.8,757.9l9.7,36.3c68.3-18.3,129.9-50.8,183-96.6L962,669.2C913.2,711.3,856.6,741.1,793.8,757.9z"/>
		<path class="st4" d="M217.4,344.6c0,39.8,5.1,80.2,15.9,120.4l36.3-9.7c-29.6-110.4-14.4-225.8,42.8-324.8S461.8-39.4,572.2-68.9
			l-9.7-36.3C354.7-49.6,217.4,139.1,217.4,344.6z"/>
		<path class="st1" d="M233.3,465c32.2,120.1,109.2,220.5,216.9,282.7c107.7,62.2,233.2,78.7,353.3,46.5l-9.7-36.3
			C683.4,787.5,568,772.3,469,715.2S299.2,565.7,269.6,455.3L233.3,465z"/>
		<path class="st2" d="M725.1-81.6c176.3,17.4,325.5,144.1,371.4,315.3l36.3-9.7c-49.9-186.2-212.2-324-404-342.9L725.1-81.6z"/>
		<path class="st2" d="M683,834.4v31.3c287.4,0,521.2-233.8,521.2-521.2l-31.3,0C1172.9,614.6,953.1,834.4,683,834.4z"/>
		<path class="st2" d="M161.8,344.5h31.3c0-270.1,219.8-489.9,489.9-489.9v-31.3C395.6-176.7,161.8,57.1,161.8,344.5z"/>
		<path class="st4" d="M208.4,560.1c63.5,139.5,184.1,243.5,331.1,285.5l8.6-30.1C410,776.1,296.5,678.3,236.9,547.2L208.4,560.1z"
			/>
		<path class="st1" d="M683-176.7v31.3c111.5,0,216.5,36.5,303.7,105.5l19.4-24.6C913.3-137.9,801.6-176.7,683-176.7z"/>
		<path class="st1" d="M1123.4,129.8c32.8,67.2,49.4,139.4,49.4,214.7l31.3,0c0-80.1-17.7-157-52.6-228.5L1123.4,129.8z"/>
		<path class="st1" d="M534,900.7c115.1,30.8,234.9,25.6,346.4-15.2c109-39.9,202.4-110.6,270-204.4l-20.3-14.6
			C997.1,851,760.2,935.4,540.5,876.5L534,900.7z"/>
		<path class="st1" d="M126.8,195.5l24.2,6.5c20.6-77,56.7-147,107-208L238.7-22C186,41.7,148.4,114.9,126.8,195.5z"/>
		<path class="st1" d="M409.6-162.3l11.9,22c124.2-67,267.7-83.8,404.1-47.3l6.5-24.2C689.5-249.9,539.4-232.4,409.6-162.3z"/>
		<path class="st2" d="M106.9,345.4c0,99.8,26.2,198.3,77.4,287C261.2,765.6,385.4,860.9,534,900.7l6.5-24.2
			C398.3,838.5,279.6,747.3,206,619.9s-93.1-275.9-55-418l-24.2-6.5C113.5,245.1,106.9,295.4,106.9,345.4z"/>
		<path class="st3" d="M825.6-187.5C967.7-149.5,1086.5-58.3,1160,69.1c73.6,127.4,93.1,275.8,55,418l24.2,6.5
			c39.8-148.6,19.4-303.8-57.5-437C1104.8-76.6,980.6-171.9,832-211.7L825.6-187.5z"/>
		<path class="st4" d="M143.5,33l16.3,9.4c166.6-288.5,536.8-387.7,825.3-221.2l9.4-16.3C697-366.8,315.3-264.5,143.5,33z"/>
		<path class="st3" d="M371.5,884c297.5,171.8,679.2,69.5,851-228l-16.3-9.4c-166.6,288.5-536.8,387.7-825.3,221.1L371.5,884z"/>
		<path class="st2" d="M1180.8,1.8c131.3,191,141.3,444.1,25.4,644.7l16.3,9.4c119.4-206.9,109.1-467.8-26.2-664.8L1180.8,1.8z"/>
		<path class="st1" d="M59.6,344.3c0,99.1,23.8,198.4,71.7,289.7l16.6-8.7C51.3,440.7,55.7,222.7,159.8,42.4L143.5,33
			C87.7,129.7,59.6,236.9,59.6,344.3z"/>
		<path class="st2" d="M218.2,809.3c256.3,256.3,673.3,256.3,929.6,0l-8.9-8.9c-251.4,251.4-660.5,251.4-911.9,0L218.2,809.3z"/>
		<path class="st2" d="M218.2-120.3l8.9,8.9C348.9-233.2,510.8-300.3,683-300.3c172.2,0,334.2,67.1,455.9,188.9l8.9-8.9
			C1023.6-244.4,858.6-312.8,683-312.8C507.4-312.8,342.4-244.4,218.2-120.3z"/>
		<path class="st4" d="M25.7,344.5c0,57.4,7.4,114.7,22.3,170.4c29.7,110.9,88.5,212.8,170.2,294.4l8.9-8.9
			C65.6,638.9,2.1,410,57.4,188l-12.2-3C32.2,237.2,25.7,290.9,25.7,344.5z"/>
		<path class="st1" d="M1138.9,800.4l8.9,8.9c256.3-256.3,256.3-673.3,0-929.6l-8.9,8.9C1390.3,140,1390.3,549,1138.9,800.4z"/>
		<path class="st2" d="M2.1,345.6C2.1,461.1,31.5,578,93.2,685l5.4-3.1c-186-322.2-75.2-735.7,247-921.7l-3.1-5.4
			C124.3-119.3,2.1,110.1,2.1,345.6z"/>
		<path class="st3" d="M1020.4,928.8l3.1,5.4c157.5-90.9,270.2-237.8,317.3-413.5c47.1-175.7,22.9-359.2-68-516.8l-5.4,3.1
			c90.1,156.1,114,337.9,67.4,512S1176.5,838.7,1020.4,928.8z"/>
		<path class="st1" d="M342.5-245.3l3.1,5.4c119.9-69.2,255.9-99.7,393.3-88.1c134.3,11.3,260.7,61.5,365.6,145.3l3.9-4.9
			C1002.5-272.1,875-322.8,739.4-334.2C600.7-345.9,463.5-315.1,342.5-245.3z"/>
		<path class="st1" d="M93.2,685c91,157.5,237.8,270.2,413.5,317.3c175.7,47.1,359.2,22.9,516.8-68l-3.1-5.4
			c-156.1,90.1-337.9,114.1-512,67.4C334.3,949.6,188.8,838,98.7,681.9L93.2,685z"/>
	</g>
</g>
</svg>
